{
    "extends": [
        "tslint:recommended"
    ],
    "jsRules": {},
    "rules": {
        "interface-name": false,
        "forin": false,
        "max-line-length": false,
        "class-name": false,
        "no-misused-new": false,
        "variable-name": false,
        "max-classes-per-file": false,
        "no-console": false,
        "no-var-requires": false,
        "ordered-imports": false,
        "ban-types": false,
        "unified-signatures": false,
        "no-consecutive-blank-lines": false,
        "no-namespace": false,
        "no-arg": false
    },
    "rulesDirectory": []
}